[gd_scene load_steps=2 format=3 uid="uid://xf6atwu2pkiv"]

[ext_resource type="Script" path="res://sound/RandomizedSoundPlayer.gd" id="1_dy47l"]

[node name="RandomizedSoundPlayer" type="AudioStreamPlayer"]
script = ExtResource("1_dy47l")
