[gd_scene load_steps=2 format=3 uid="uid://cp2cbnxljnkdl"]

[ext_resource type="Script" path="res://ui/controls_menu/control/adjustable_input_control.gd" id="1_rb3os"]

[node name="AdjustableInputControl" type="MarginContainer"]
size_flags_horizontal = 3
theme_override_constants/margin_left = 5
theme_override_constants/margin_right = 5
script = ExtResource("1_rb3os")

[node name="HBoxContainer" type="VBoxContainer" parent="."]
layout_mode = 2

[node name="Label" type="Label" parent="HBoxContainer"]
layout_mode = 2
text = "Move Up"

[node name="ButtonContainer" type="HBoxContainer" parent="HBoxContainer"]
layout_mode = 2
alignment = 1

[node name="HSeparator" type="HSeparator" parent="HBoxContainer"]
layout_mode = 2
