[gd_scene load_steps=2 format=3 uid="uid://cki76lkr11nyx"]

[sub_resource type="GDScript" id="GDScript_nl07d"]
script/source = "extends Button

func _ready() -> void:
	pressed.connect(_on_pressed)


func _on_pressed() -> void:
	var panel: Panel = load(\"res://ui/controls_menu/panel/key_explanation_panel.tscn\").instantiate()
	var available_size: Vector2 = get_viewport_rect().size
	panel.size = Vector2i(available_size)
	get_tree().get_root().add_child(panel)
	panel.show()
	panel.focus_mode = Control.FOCUS_ALL
	panel.grab_focus()
	panel.dismissed.connect(func () -> void: grab_focus())	
"

[node name="ExplanationButton" type="Button"]
text = "Help"
script = SubResource("GDScript_nl07d")
