[gd_resource type="Theme" load_steps=6 format=3 uid="uid://c8yw0g3hfg37k"]

[ext_resource type="StyleBox" uid="uid://dsmmc4qqfn0jk" path="res://ui/main_menu/main_menu_button_style_box.tres" id="1_dwj3u"]
[ext_resource type="FontFile" uid="uid://w05jwfsio5gh" path="res://ui/Kenney Pixel.ttf" id="2_7m7lq"]

[sub_resource type="StyleBoxFlat" id="StyleBoxFlat_weqg1"]
content_margin_left = 5.0
content_margin_top = 5.0
content_margin_right = 5.0
content_margin_bottom = 5.0
bg_color = Color(0.352941, 0.231373, 0.105882, 1)
border_width_left = 1
border_width_top = 1
border_width_right = 1
border_width_bottom = 1
border_color = Color(0.133333, 0.12549, 0.203922, 1)
corner_radius_top_left = 1
corner_radius_top_right = 1
corner_radius_bottom_right = 1
corner_radius_bottom_left = 1

[sub_resource type="StyleBoxFlat" id="StyleBoxFlat_md2ab"]
bg_color = Color(0.894118, 0.776471, 0.662745, 1)

[sub_resource type="StyleBoxFlat" id="StyleBoxFlat_a4o6f"]
bg_color = Color(0.894118, 0.776471, 0.662745, 1)

[resource]
default_font = ExtResource("2_7m7lq")
Button/colors/font_color = Color(0.294118, 0.411765, 0.184314, 1)
Button/colors/font_outline_color = Color(0.192157, 0.266667, 0.121569, 1)
Button/constants/outline_size = 3
Button/font_sizes/font_size = 24
Button/styles/hover = SubResource("StyleBoxFlat_weqg1")
Button/styles/normal = ExtResource("1_dwj3u")
Label/colors/font_color = Color(0.294118, 0.411765, 0.184314, 1)
Label/colors/font_shadow_color = Color(0.192157, 0.266667, 0.121569, 1)
Label/font_sizes/font_size = 24
Label/fonts/font = ExtResource("2_7m7lq")
Panel/styles/panel = SubResource("StyleBoxFlat_md2ab")
TooltipPanel/styles/panel = ExtResource("1_dwj3u")
Window/styles/embedded_border = SubResource("StyleBoxFlat_a4o6f")
